<svg width="16" height="16" viewBox="0 0 16 16" fill="none" xmlns="http://www.w3.org/2000/svg">
<path fill-rule="evenodd" clip-rule="evenodd" d="M7.99967 2.6665C8.36786 2.6665 8.66634 2.96498 8.66634 3.33317V12.6665C8.66634 13.0347 8.36786 13.3332 7.99967 13.3332C7.63148 13.3332 7.33301 13.0347 7.33301 12.6665V3.33317C7.33301 2.96498 7.63148 2.6665 7.99967 2.6665Z" fill="white"/>
<path fill-rule="evenodd" clip-rule="evenodd" d="M2.66699 8.00016C2.66699 7.63197 2.96547 7.3335 3.33366 7.3335H12.667C13.0352 7.3335 13.3337 7.63197 13.3337 8.00016C13.3337 8.36835 13.0352 8.66683 12.667 8.66683H3.33366C2.96547 8.66683 2.66699 8.36835 2.66699 8.00016Z" fill="white"/>
</svg>
