<svg width="24" height="24" viewBox="0 0 24 24" fill="none" xmlns="http://www.w3.org/2000/svg">
<path d="M15.6567 2.70703L19.8994 6.94967L15.6567 11.1923" stroke="black" stroke-width="2" stroke-linecap="round" stroke-linejoin="round"/>
<path d="M8.24268 21.2175L4.00004 16.9749L8.24268 12.7322" stroke="black" stroke-width="2" stroke-linecap="round" stroke-linejoin="round"/>
<path d="M3.99976 7L17.8992 6.94975" stroke="black" stroke-width="2" stroke-linecap="round" stroke-linejoin="round"/>
<path d="M19.8997 16.9246L6.0002 16.9748" stroke="black" stroke-width="2" stroke-linecap="round" stroke-linejoin="round"/>
</svg>
