<svg width="12" height="2" viewBox="0 0 12 2" fill="none" xmlns="http://www.w3.org/2000/svg">
<path fill-rule="evenodd" clip-rule="evenodd" d="M0.666992 1.00016C0.666992 0.631973 0.965469 0.333496 1.33366 0.333496H10.667C11.0352 0.333496 11.3337 0.631973 11.3337 1.00016C11.3337 1.36835 11.0352 1.66683 10.667 1.66683H1.33366C0.965469 1.66683 0.666992 1.36835 0.666992 1.00016Z" fill="white"/>
</svg>
