<svg width="22" height="22" viewBox="0 0 22 22" fill="none" xmlns="http://www.w3.org/2000/svg">
<g clip-path="url(#clip0_401_3374)">
<path d="M14.9479 5.27148V10.6168C14.6852 10.6168 14.4319 10.7276 14.2537 10.903C14.0755 11.0785 13.9629 11.3277 13.9629 11.5862V11.6601C13.9629 11.817 13.916 11.974 13.8222 12.1032C13.7377 12.2325 13.6158 12.334 13.4657 12.3986H13.4282C13.2781 12.4633 13.1092 12.4817 12.9591 12.454C12.7996 12.4263 12.6495 12.3432 12.537 12.2417L12.5088 12.214C12.4244 12.1217 12.3024 12.0478 12.1899 12.0017C12.0773 11.9555 11.946 11.9278 11.8052 11.9278C11.6833 11.9278 11.552 11.9555 11.43 12.0017C11.308 12.0478 11.1955 12.1217 11.1017 12.214C11.0078 12.3063 10.9422 12.4171 10.8953 12.5279C10.839 12.6387 10.8202 12.7679 10.8202 12.9064C10.8202 13.0264 10.839 13.1557 10.8953 13.2849C10.9422 13.3957 11.0078 13.5065 11.1017 13.5988L11.1298 13.6265C11.2424 13.7373 11.3268 13.885 11.3456 14.0419C11.3737 14.1989 11.3643 14.3651 11.2893 14.5035C11.233 14.6605 11.1298 14.7897 10.9985 14.8821C10.8578 14.9744 10.7077 15.0298 10.5388 15.0298H10.5013C10.2386 15.0298 9.98531 15.1406 9.80707 15.316C9.62883 15.4914 9.52564 15.7314 9.51626 15.9622H4.0846C3.67184 15.9622 3.27783 15.8053 2.98702 15.5191C2.6962 15.2329 2.52734 14.8359 2.52734 14.4389V2.21567C2.52734 1.80946 2.68682 1.42172 2.98702 1.13552C3.27783 0.849328 3.68122 0.692383 4.0846 0.692383H10.2949L14.9479 5.27148Z" stroke="#FCFCFD" stroke-width="1.5" stroke-linecap="round" stroke-linejoin="round"/>
<path d="M10.2949 0.692383V5.27149H14.9479" stroke="#FCFCFD" stroke-width="1.5" stroke-linecap="round" stroke-linejoin="round"/>
<path d="M11.8425 9.09357H5.6416" stroke="#FCFCFD" stroke-width="1.5" stroke-linecap="round" stroke-linejoin="round"/>
<path d="M10.7074 12.1309H5.6416" stroke="#FCFCFD" stroke-width="1.5" stroke-linecap="round" stroke-linejoin="round"/>
<path d="M7.18948 6.03778H6.41085H5.6416" stroke="#FCFCFD" stroke-width="1.5" stroke-linecap="round" stroke-linejoin="round"/>
<path d="M20.0891 15.2699C19.9015 15.0852 19.6482 14.9837 19.3949 14.9837H19.3105C19.151 14.9837 18.9915 14.9375 18.8602 14.8544C18.7288 14.7621 18.6256 14.6421 18.5694 14.4944V14.4574C18.5037 14.3097 18.4849 14.1528 18.5131 13.9958C18.5318 13.8389 18.6163 13.7004 18.7288 13.5804L18.757 13.5527C18.8414 13.4604 18.9165 13.3496 18.9634 13.2296C19.0196 13.1188 19.0384 12.9895 19.0384 12.8603C19.0384 12.731 19.0196 12.6018 18.9634 12.4818C18.9165 12.3618 18.8414 12.251 18.757 12.1679C18.6632 12.0756 18.5506 12.0017 18.4286 11.9555C18.3161 11.9094 18.1847 11.8817 18.0534 11.8817C17.9221 11.8817 17.7907 11.9094 17.6688 11.9555C17.5468 12.0017 17.4342 12.0756 17.3498 12.1679L17.3217 12.1863C17.2091 12.2971 17.059 12.3802 16.8995 12.4079C16.74 12.4264 16.5712 12.4171 16.4305 12.3433C16.2804 12.2787 16.1584 12.1863 16.074 12.0571C15.9802 11.9279 15.9333 11.7709 15.9333 11.614V11.577C15.9333 11.3185 15.8301 11.0693 15.6425 10.8939C15.4548 10.7185 15.2109 10.6077 14.9483 10.6077C14.6856 10.6077 14.4323 10.7185 14.2541 10.8939C14.0758 11.0693 13.9632 11.3185 13.9632 11.577V11.6509C13.9632 11.8078 13.9163 11.9648 13.8225 12.094C13.7381 12.2233 13.6161 12.3248 13.466 12.3895H13.4285C13.2784 12.4541 13.1096 12.4725 12.9595 12.4448C12.8 12.4171 12.6499 12.3341 12.5373 12.2325L12.5092 12.2048C12.4247 12.1125 12.3028 12.0386 12.1902 11.9925C12.0776 11.9463 11.9463 11.9186 11.8056 11.9186C11.6836 11.9186 11.5523 11.9463 11.4303 11.9925C11.3084 12.0386 11.1958 12.1125 11.102 12.2048C11.0082 12.2971 10.9425 12.4079 10.8956 12.5187C10.8393 12.6295 10.8206 12.7587 10.8206 12.8972C10.8206 13.0172 10.8393 13.1465 10.8956 13.2757C10.9425 13.3865 11.0082 13.4973 11.102 13.5896L11.1301 13.6173C11.2427 13.7281 11.3272 13.8758 11.3459 14.0328C11.3741 14.1897 11.3647 14.3559 11.2896 14.4944C11.2333 14.6513 11.1301 14.7806 10.9988 14.8729C10.8581 14.9652 10.708 15.0206 10.5391 15.0206H10.5016C10.2389 15.0206 9.98566 15.1314 9.80742 15.3068C9.62918 15.4822 9.52598 15.7222 9.5166 15.953V15.99C9.5166 16.2485 9.61979 16.4977 9.80742 16.6731C9.99504 16.8578 10.2389 16.9593 10.5016 16.9593H10.586C10.7455 16.9593 10.905 17.0055 11.0363 17.0886C11.1677 17.1717 11.2709 17.3009 11.3272 17.4394C11.3928 17.5963 11.4116 17.7533 11.3834 17.901C11.3647 18.0579 11.2802 18.2057 11.1677 18.3164L11.1395 18.3718C11.0551 18.4641 10.9801 18.5749 10.9331 18.6857C10.8769 18.8057 10.8581 18.9258 10.8581 19.0642C10.8581 19.1935 10.8769 19.3135 10.9331 19.4427C10.9801 19.5535 11.0551 19.6643 11.1395 19.7566C11.2333 19.849 11.3459 19.9136 11.4679 19.969C11.5804 20.0151 11.7118 20.0336 11.8431 20.0336C11.9744 20.0336 12.1058 20.0151 12.2277 19.969C12.3497 19.9136 12.4623 19.849 12.5467 19.7566L12.5748 19.7289C12.6874 19.6182 12.8375 19.5443 12.997 19.5166C13.1565 19.4889 13.3253 19.5074 13.466 19.572C13.6255 19.6366 13.7569 19.7289 13.8507 19.8582C13.9445 19.9874 14.0008 20.1444 14.0101 20.3013V20.3475C14.0101 20.606 14.1133 20.8553 14.301 21.0307C14.4886 21.2061 14.7325 21.3169 14.9952 21.3169C15.2578 21.3169 15.5111 21.2153 15.6894 21.0307C15.8676 20.846 15.9802 20.606 15.9802 20.3475V20.2644C15.9802 20.1075 16.0271 19.9597 16.1209 19.8305C16.2053 19.7012 16.3273 19.5905 16.4774 19.5351C16.6275 19.4704 16.7869 19.452 16.9464 19.4797C17.1059 19.5074 17.256 19.5905 17.3686 19.692L17.3967 19.7197C17.4811 19.812 17.5937 19.8767 17.7157 19.932C17.8282 19.9782 17.9596 19.9967 18.1003 19.9967C18.2223 19.9967 18.3536 19.9782 18.4755 19.932C18.5975 19.8767 18.7101 19.812 18.8039 19.7197C18.8977 19.6274 18.9634 19.5166 19.0103 19.4058C19.0666 19.2858 19.0853 19.1658 19.0853 19.0273C19.0853 18.8981 19.0666 18.778 19.0103 18.6488C18.9634 18.538 18.8977 18.4272 18.8039 18.3349L18.7757 18.3072C18.6632 18.1964 18.5787 18.0487 18.56 17.8918C18.5318 17.7348 18.5412 17.5686 18.6163 17.4302C18.6819 17.2824 18.7757 17.1624 18.9071 17.0793C19.0384 16.9963 19.1979 16.9501 19.3574 16.9501H19.4043C19.6576 16.9501 19.9202 16.8393 20.0985 16.6639C20.2767 16.4885 20.3893 16.2392 20.3893 15.9807C20.3799 15.713 20.2767 15.4545 20.0891 15.2699ZM14.9483 17.4209C14.1321 17.4209 13.466 16.7747 13.466 15.9623V15.953C13.4754 15.1591 14.1321 14.5128 14.9389 14.5036H14.9483C15.7644 14.5036 16.4305 15.1591 16.4305 15.9623C16.4305 16.7747 15.7644 17.4209 14.9483 17.4209Z" stroke="#FCFCFD" stroke-width="1.5" stroke-linecap="round" stroke-linejoin="round"/>
<path d="M16.4302 15.9622C16.4302 16.7746 15.7642 17.4209 14.948 17.4209C14.1319 17.4209 13.4658 16.7746 13.4658 15.9622V15.953C13.4752 15.159 14.1319 14.5128 14.9387 14.5035H14.948C15.7642 14.5035 16.4302 15.159 16.4302 15.9622Z" stroke="#FCFCFD" stroke-width="1.5" stroke-linecap="round" stroke-linejoin="round"/>
</g>
<defs>
<clipPath id="clip0_401_3374">
<rect width="19.25" height="22" fill="white" transform="translate(1.83301)"/>
</clipPath>
</defs>
</svg>
